…
```
library(corhex)
data("demo", package = "corhex")
```
```
output>
demo
# A tibble: 847 × 7
   Index      replicate1 replicate2 replicate3 replicate4 replicate5 replicate6
   <chr>           <dbl>      <dbl>      <dbl>      <dbl>      <dbl>      <dbl>
 1 protein_1       38860      66779      83308      51912      45539      53776
 2 protein_2      302630     345410     265360     240090     325560     316900
 3 protein_3     9404800   10450000   10737000    9861500   12372000   10057000
 4 protein_4      290580     196550     568370     411740     583660     250190
 5 protein_5      148370     124730     134680     103870     117820     110700
 6 protein_6    36017000   34625000   39045000   30246000   33735000   26250000
 7 protein_7     2092400    1997200    2525800    1582500    2855600    1745800
 8 protein_8      251060     236500     431380     130350     179880      49719
 9 protein_9     1559300    1428300     959220    1322900    1302300     780380
10 protein_10     144310      69745      71703      69709      66113      55467
# ℹ 837 more rows
# ℹ Use `print(n = ...)` to see more rows
```
…
